<?xml version="1.0" encoding="UTF-8" standalone="no"?>
<!-- Created with Inkscape (http://www.inkscape.org/) -->

<svg
   xmlns:dc="http://purl.org/dc/elements/1.1/"
   xmlns:cc="http://creativecommons.org/ns#"
   xmlns:rdf="http://www.w3.org/1999/02/22-rdf-syntax-ns#"
   xmlns:svg="http://www.w3.org/2000/svg"
   xmlns="http://www.w3.org/2000/svg"
   xmlns:xlink="http://www.w3.org/1999/xlink"
   xmlns:sodipodi="http://sodipodi.sourceforge.net/DTD/sodipodi-0.dtd"
   xmlns:inkscape="http://www.inkscape.org/namespaces/inkscape"
   width="200"
   height="200"
   viewBox="0 0 200 200"
   id="svg12241"
   version="1.1"
   inkscape:version="0.91 r13725"
   sodipodi:docname="download-developer.svg">
  <defs
     id="defs12243">
    <linearGradient
       inkscape:collect="always"
       id="linearGradient4303">
      <stop
         style="stop-color:#c6cdd1;stop-opacity:1"
         offset="0"
         id="stop4305" />
      <stop
         style="stop-color:#e0e5e7;stop-opacity:1"
         offset="1"
         id="stop4307" />
    </linearGradient>
    <linearGradient
       gradientTransform="matrix(7.5590546,0,0,7.5590546,-39.999994,-2017.0392)"
       gradientUnits="userSpaceOnUse"
       y2="267.63126"
       x2="19.049999"
       y1="292.50208"
       x1="19.049999"
       id="linearGradient4652"
       xlink:href="#linearGradient4303"
       inkscape:collect="always" />
    <linearGradient
       inkscape:collect="always"
       id="linearGradient4143-8">
      <stop
         style="stop-color:#faae2a;stop-opacity:1"
         offset="0"
         id="stop4145-7" />
      <stop
         style="stop-color:#ffc35a;stop-opacity:1"
         offset="1"
         id="stop4147-4" />
    </linearGradient>
    <linearGradient
       id="linearGradient4256">
      <stop
         style="stop-color:#8cbdf8;stop-opacity:1;"
         offset="0"
         id="stop4258" />
      <stop
         style="stop-color:#d5e8ff;stop-opacity:1;"
         offset="1"
         id="stop4260" />
    </linearGradient>
    <linearGradient
       id="linearGradient4232">
      <stop
         style="stop-color:#3889e9;stop-opacity:1"
         offset="0"
         id="stop4234-0" />
      <stop
         style="stop-color:#5ea5fb;stop-opacity:1"
         offset="1"
         id="stop4236" />
    </linearGradient>
    <clipPath
       clipPathUnits="userSpaceOnUse"
       id="clipPath4799">
      <path
         inkscape:connector-curvature="0"
         id="path4801"
         d="M 99.999998,862.36218 A 89.999956,89.999956 0 0 0 9.9999931,952.36217 89.999956,89.999956 0 0 0 99.999998,1042.3622 89.999956,89.999956 0 0 0 190,952.36217 89.999956,89.999956 0 0 0 99.999998,862.36218 Z m 0,64.00002 A 25.999959,25.999959 0 0 1 126,952.36217 25.999959,25.999959 0 0 1 99.999998,978.36222 25.999959,25.999959 0 0 1 74.000002,952.36217 25.999959,25.999959 0 0 1 99.999998,926.3622 Z m 0,6 A 19.99996,19.99996 0 0 0 80.000001,952.36217 19.99996,19.99996 0 0 0 99.999998,972.36222 19.99996,19.99996 0 0 0 120,952.36217 19.99996,19.99996 0 0 0 99.999998,932.3622 Z m 0,10.00003 A 9.9999603,9.9999603 0 0 1 110,952.36217 9.9999603,9.9999603 0 0 1 99.999998,962.3622 a 9.9999603,9.9999603 0 0 1 -9.999995,-10.00003 9.9999603,9.9999603 0 0 1 9.999995,-9.99994 z"
         style="opacity:1;fill:#313437;fill-opacity:1;stroke:none;stroke-width:0.1;stroke-linecap:round;stroke-linejoin:miter;stroke-miterlimit:4;stroke-dasharray:none;stroke-opacity:0.29943501" />
    </clipPath>
    <clipPath
       clipPathUnits="userSpaceOnUse"
       id="clipPath4799-9">
      <path
         inkscape:connector-curvature="0"
         id="path4801-9"
         d="M 99.999998,862.36218 A 89.999956,89.999956 0 0 0 9.9999931,952.36217 89.999956,89.999956 0 0 0 99.999998,1042.3622 89.999956,89.999956 0 0 0 190,952.36217 89.999956,89.999956 0 0 0 99.999998,862.36218 Z m 0,64.00002 A 25.999959,25.999959 0 0 1 126,952.36217 25.999959,25.999959 0 0 1 99.999998,978.36222 25.999959,25.999959 0 0 1 74.000002,952.36217 25.999959,25.999959 0 0 1 99.999998,926.3622 Z m 0,6 A 19.99996,19.99996 0 0 0 80.000001,952.36217 19.99996,19.99996 0 0 0 99.999998,972.36222 19.99996,19.99996 0 0 0 120,952.36217 19.99996,19.99996 0 0 0 99.999998,932.3622 Z m 0,10.00003 A 9.9999603,9.9999603 0 0 1 110,952.36217 9.9999603,9.9999603 0 0 1 99.999998,962.3622 a 9.9999603,9.9999603 0 0 1 -9.999995,-10.00003 9.9999603,9.9999603 0 0 1 9.999995,-9.99994 z"
         style="opacity:1;fill:#313437;fill-opacity:1;stroke:none;stroke-width:0.1;stroke-linecap:round;stroke-linejoin:miter;stroke-miterlimit:4;stroke-dasharray:none;stroke-opacity:0.29943501" />
    </clipPath>
    <clipPath
       clipPathUnits="userSpaceOnUse"
       id="clipPath4799-5">
      <path
         inkscape:connector-curvature="0"
         id="path4801-8"
         d="M 99.999998,862.36218 A 89.999956,89.999956 0 0 0 9.9999931,952.36217 89.999956,89.999956 0 0 0 99.999998,1042.3622 89.999956,89.999956 0 0 0 190,952.36217 89.999956,89.999956 0 0 0 99.999998,862.36218 Z m 0,64.00002 A 25.999959,25.999959 0 0 1 126,952.36217 25.999959,25.999959 0 0 1 99.999998,978.36222 25.999959,25.999959 0 0 1 74.000002,952.36217 25.999959,25.999959 0 0 1 99.999998,926.3622 Z m 0,6 A 19.99996,19.99996 0 0 0 80.000001,952.36217 19.99996,19.99996 0 0 0 99.999998,972.36222 19.99996,19.99996 0 0 0 120,952.36217 19.99996,19.99996 0 0 0 99.999998,932.3622 Z m 0,10.00003 A 9.9999603,9.9999603 0 0 1 110,952.36217 9.9999603,9.9999603 0 0 1 99.999998,962.3622 a 9.9999603,9.9999603 0 0 1 -9.999995,-10.00003 9.9999603,9.9999603 0 0 1 9.999995,-9.99994 z"
         style="opacity:1;fill:#313437;fill-opacity:1;stroke:none;stroke-width:0.1;stroke-linecap:round;stroke-linejoin:miter;stroke-miterlimit:4;stroke-dasharray:none;stroke-opacity:0.29943501" />
    </clipPath>
    <linearGradient
       gradientTransform="matrix(2,0,0,2,-384.5714,-537.79802)"
       y2="521.79797"
       x2="400.57144"
       y1="521.79797"
       x1="398.57144"
       gradientUnits="userSpaceOnUse"
       id="linearGradient5907"
       xlink:href="#linearGradient4143-8"
       inkscape:collect="always" />
    <linearGradient
       gradientTransform="matrix(2,0,0,2,-384.5714,-537.79802)"
       y2="521.79797"
       x2="400.57144"
       y1="521.79797"
       x1="398.57144"
       gradientUnits="userSpaceOnUse"
       id="linearGradient5959"
       xlink:href="#linearGradient4143-8"
       inkscape:collect="always" />
    <linearGradient
       inkscape:collect="always"
       xlink:href="#linearGradient4303"
       id="linearGradient5971"
       gradientUnits="userSpaceOnUse"
       gradientTransform="matrix(0.63587062,0,0,1,144.25118,-30.99993)"
       x1="416.96021"
       y1="551.79791"
       x2="416.96021"
       y2="528.79791" />
    <linearGradient
       inkscape:collect="always"
       xlink:href="#linearGradient4143-8"
       id="linearGradient5973"
       gradientUnits="userSpaceOnUse"
       gradientTransform="matrix(2,0,0,2,-396.57143,-537.79802)"
       x1="398.57144"
       y1="521.79797"
       x2="400.57144"
       y2="521.79797" />
    <linearGradient
       inkscape:collect="always"
       xlink:href="#linearGradient4143-8"
       id="linearGradient5975"
       gradientUnits="userSpaceOnUse"
       gradientTransform="matrix(2,0,0,2,-384.5714,-537.79802)"
       x1="398.57144"
       y1="521.79797"
       x2="400.57144"
       y2="521.79797" />
    <linearGradient
       inkscape:collect="always"
       id="linearGradient4849">
      <stop
         style="stop-color:#000000;stop-opacity:1;"
         offset="0"
         id="stop4851" />
      <stop
         style="stop-color:#000000;stop-opacity:0;"
         offset="1"
         id="stop4853" />
    </linearGradient>
    <linearGradient
       inkscape:collect="always"
       xlink:href="#linearGradient4849"
       id="linearGradient4855-9"
       x1="55"
       y1="1022.3622"
       x2="165"
       y2="1022.3622"
       gradientUnits="userSpaceOnUse"
       gradientTransform="translate(-9,22)" />
  </defs>
  <sodipodi:namedview
     id="base"
     pagecolor="#ffffff"
     bordercolor="#666666"
     borderopacity="1.0"
     inkscape:pageopacity="0.0"
     inkscape:pageshadow="2"
     inkscape:zoom="1"
     inkscape:cx="48.602538"
     inkscape:cy="9.5629027"
     inkscape:document-units="px"
     inkscape:current-layer="layer1"
     showgrid="false"
     units="px"
     inkscape:window-width="1920"
     inkscape:window-height="1006"
     inkscape:window-x="0"
     inkscape:window-y="0"
     inkscape:window-maximized="1"
     inkscape:snap-bbox="true"
     inkscape:bbox-nodes="true"
     inkscape:snap-center="true"
     showguides="false"
     inkscape:snap-global="true">
    <inkscape:grid
       type="xygrid"
       id="grid4134" />
  </sodipodi:namedview>
  <metadata
     id="metadata12246">
    <rdf:RDF>
      <cc:Work
         rdf:about="">
        <dc:format>image/svg+xml</dc:format>
        <dc:type
           rdf:resource="http://purl.org/dc/dcmitype/StillImage" />
        <dc:title />
      </cc:Work>
    </rdf:RDF>
  </metadata>
  <g
     inkscape:label="Layer 1"
     inkscape:groupmode="layer"
     id="layer1"
     transform="translate(0,-852.3622)">
    <g
       id="g4489"
       transform="translate(1,0)">
      <path
         style="opacity:1;fill:#000000;fill-opacity:0.15686275;stroke:none;stroke-width:0.1;stroke-linecap:round;stroke-linejoin:miter;stroke-miterlimit:4;stroke-dasharray:none;stroke-opacity:0.29943501"
         d="m 99.999998,924.36132 a 28.000348,28.000348 0 0 0 -28.000341,28.00085 28.000348,28.000348 0 0 0 28.000341,28.00086 28.000348,28.000348 0 0 0 28.000352,-28.00086 28.000348,28.000348 0 0 0 -28.000352,-28.00085 z m 0,20.41723 a 7.5834189,7.5834189 0 0 1 7.583452,7.58362 7.5834189,7.5834189 0 0 1 -7.583452,7.58363 7.5834189,7.5834189 0 0 1 -7.583448,-7.58363 7.5834189,7.5834189 0 0 1 7.583448,-7.58362 z"
         id="path4744"
         inkscape:connector-curvature="0" />
      <path
         style="opacity:1;fill:url(#linearGradient4652);fill-opacity:1;stroke:none;stroke-width:0.1;stroke-linecap:round;stroke-linejoin:miter;stroke-miterlimit:4;stroke-dasharray:none;stroke-opacity:0.29943501"
         d="m 100,6 a 93.999958,93.999958 0 0 0 -94,94 93.999958,93.999958 0 0 0 94,94 93.999958,93.999958 0 0 0 94,-94 93.999958,93.999958 0 0 0 -94,-94 z m 0,64 a 30,30 0 0 1 30,30 30,30 0 0 1 -30,30 30,30 0 0 1 -30,-30 30,30 0 0 1 30,-30 z"
         transform="translate(0,852.3622)"
         id="path4308"
         inkscape:connector-curvature="0" />
      <path
         inkscape:connector-curvature="0"
         id="circle4543"
         d="M 99.999998,862.36218 A 89.999956,89.999956 0 0 0 9.9999931,952.36217 89.999956,89.999956 0 0 0 99.999998,1042.3622 89.999956,89.999956 0 0 0 190,952.36217 89.999956,89.999956 0 0 0 99.999998,862.36218 Z m 0,64.00002 A 25.999959,25.999959 0 0 1 126,952.36217 25.999959,25.999959 0 0 1 99.999998,978.36222 25.999959,25.999959 0 0 1 74.000002,952.36217 25.999959,25.999959 0 0 1 99.999998,926.3622 Z m 0,6 A 19.99996,19.99996 0 0 0 80.000001,952.36217 19.99996,19.99996 0 0 0 99.999998,972.36222 19.99996,19.99996 0 0 0 120,952.36217 19.99996,19.99996 0 0 0 99.999998,932.3622 Z m 0,10.00003 A 9.9999603,9.9999603 0 0 1 110,952.36217 9.9999603,9.9999603 0 0 1 99.999998,962.3622 a 9.9999603,9.9999603 0 0 1 -9.999995,-10.00003 9.9999603,9.9999603 0 0 1 9.999995,-9.99994 z"
         style="opacity:1;fill:#2c3e50;fill-opacity:1;stroke:none;stroke-width:0.1;stroke-linecap:round;stroke-linejoin:miter;stroke-miterlimit:4;stroke-dasharray:none;stroke-opacity:0.29943501" />
      <path
         id="path4780"
         d="m 99.99999,928.3622 a 23.999999,23.999999 0 0 0 -23.999999,24 23.999999,23.999999 0 0 0 23.999999,24 23.999999,23.999999 0 0 0 24,-24 23.999999,23.999999 0 0 0 -24,-24 z m 0,2 a 21.999999,21.999999 0 0 1 22,22 21.999999,21.999999 0 0 1 -22,22 21.999999,21.999999 0 0 1 -21.999999,-22 21.999999,21.999999 0 0 1 21.999999,-22 z"
         style="opacity:1;fill:#000000;fill-opacity:0.07843137;stroke:none;stroke-width:0.1;stroke-linecap:round;stroke-linejoin:miter;stroke-miterlimit:4;stroke-dasharray:none;stroke-opacity:0.29943501"
         inkscape:connector-curvature="0" />
      <path
         inkscape:connector-curvature="0"
         style="opacity:1;fill:#34495e;fill-opacity:1;stroke:none;stroke-width:0.1;stroke-linecap:square;stroke-linejoin:miter;stroke-miterlimit:4;stroke-dasharray:none;stroke-dashoffset:0;stroke-opacity:1"
         d="m 91.966667,872.36221 0,17.40514 a 24.02001,24.02001 0 0 0 -16.013343,22.62821 24.02001,24.02001 0 0 0 12.2133,20.89243 l -11.556501,43.16093 -8.663463,0 0,8.00667 6.521031,0 -6.474105,24.14511 4.581895,13.7615 10.164776,-37.90661 34.450543,0 10.14909,37.90661 4.5819,-13.7615 -6.47412,-24.14511 6.55233,0 0,-8.00667 -8.69476,0 -11.55649,-43.1453 a 24.02001,24.02001 0 0 0 12.2446,-20.90806 24.02001,24.02001 0 0 0 -16.01334,-22.6126 l 0,-17.42076 -16.013343,0 z m 8.006683,32.02668 a 8.0066701,8.0066701 0 0 1 8.00666,8.00667 8.0066701,8.0066701 0 0 1 -8.00666,8.00667 8.0066701,8.0066701 0 0 1 -8.006683,-8.00667 8.0066701,8.0066701 0 0 1 8.006683,-8.00667 z m -4.25355,31.6201 a 24.02001,24.02001 0 0 0 4.25355,0.40674 24.02001,24.02001 0 0 0 4.23792,-0.37552 l 10.8215,40.40863 -30.150168,0 10.837198,-40.43993 z"
         id="rect4530-2"
         clip-path="url(#clipPath4799)"
         inkscape:transform-center-x="-3.2903614"
         inkscape:transform-center-y="3.3391388"
         transform="matrix(0.70710678,-0.70710678,0.70710678,0.70710678,-644.13245,349.65111)" />
    </g>
    <g
       transform="translate(-372.57144,471.5642)"
       id="layer1-7-5"
       inkscape:label="Capa 1">
      <rect
         style="opacity:1;fill:url(#linearGradient5971);fill-opacity:1;stroke:none"
         id="rect4317-8"
         width="26"
         height="23.999866"
         x="395.57144"
         y="497.79813"
         ry="0" />
      <rect
         ry="0"
         y="520.79797"
         x="392.57144"
         height="54.000027"
         width="31.999998"
         id="rect4139-9"
         style="opacity:1;fill:#2c3e50;fill-opacity:1;stroke:none" />
      <rect
         y="573.79797"
         x="392.57144"
         height="1.0000228"
         width="32"
         id="rect4492-8"
         style="opacity:0.2;fill:#000000;fill-opacity:1;stroke:none;stroke-width:2.79999995;stroke-miterlimit:4;stroke-dasharray:none;stroke-opacity:0.55026455" />
      <rect
         y="501.79794"
         x="398.57144"
         height="8.0000525"
         width="8.0000525"
         id="rect4359-3"
         style="opacity:1;fill:#23262c;fill-opacity:1;stroke:none" />
      <rect
         style="opacity:1;fill:#23262c;fill-opacity:1;stroke:none"
         id="rect4361-6"
         width="8.0000525"
         height="8.0000525"
         x="410.57153"
         y="501.79794" />
      <rect
         y="501.79794"
         x="400.57144"
         height="8"
         width="4.0000238"
         id="rect4363-4"
         style="opacity:1;fill:url(#linearGradient5973);fill-opacity:1;stroke:none" />
      <rect
         style="opacity:1;fill:url(#linearGradient5975);fill-opacity:1;stroke:none"
         id="rect4373-9"
         width="4.0000238"
         height="8"
         x="412.57153"
         y="501.79794" />
    </g>
    <path
       inkscape:connector-curvature="0"
       style="opacity:0.2;fill:url(#linearGradient4855-9);fill-opacity:1;fill-rule:evenodd;stroke:none;stroke-width:1px;stroke-linecap:butt;stroke-linejoin:miter;stroke-opacity:1"
       d="m 49,970.3622 0,22 3,0 0,35.4648 a 89.999956,89.999956 0 0 0 49,14.5352 89.999956,89.999956 0 0 0 18.13867,-1.8613 L 49,970.3622 Z"
       id="path4847-4" />
    <g
       transform="translate(-393.71429,496.57146)"
       id="layer1-6"
       inkscape:label="Capa 1"
       style="fill:#fcfcfc">
      <path
         sodipodi:nodetypes="cccccccccccccccccccccccccccccccccssssssssssssssssssssscccc"
         inkscape:connector-curvature="0"
         id="rect4144"
         transform="translate(421.71429,525.79074)"
         d="m 10,3 0,1.078125 C 8.8122451,4.2471732 7.7239491,4.7101021 6.8085938,5.3945312 L 5.4140625,4 4,5.4140625 5.3945312,6.8085938 C 4.7101021,7.7239491 4.2471732,8.8122451 4.078125,10 L 3,10 l 0,2 1.078125,0 c 0.1690482,1.187755 0.6319771,2.276051 1.3164062,3.191406 L 4,16.585938 5.4140625,18 6.8085938,16.605469 C 7.7239491,17.289898 8.8122451,17.752827 10,17.921875 L 10,19 l 2,0 0,-1.078125 c 1.187755,-0.169048 2.276051,-0.631977 3.191406,-1.316406 L 16.585938,18 18,16.585938 16.605469,15.191406 C 17.289898,14.276051 17.752827,13.187755 17.921875,12 L 19,12 19,10 17.921875,10 C 17.752827,8.8122451 17.289898,7.7239491 16.605469,6.8085938 L 18,5.4140625 16.585938,4 15.191406,5.3945312 C 14.276051,4.7101021 13.187755,4.2471732 12,4.078125 L 12,3 Z m 1,2 c 0.341536,0 0.674346,0.035541 1,0.089844 0.913243,0.1522826 1.754037,0.5060131 2.476562,1.0195312 0.547197,0.3889067 1.025156,0.8668665 1.414063,1.4140625 C 16.404143,8.2459631 16.757874,9.0867569 16.910156,10 16.964459,10.325654 17,10.658464 17,11 c 0,0.341536 -0.03554,0.674346 -0.08984,1 -0.152282,0.913243 -0.506013,1.754037 -1.019531,2.476562 -0.388907,0.547197 -0.866867,1.025156 -1.414063,1.414063 C 13.754037,16.404143 12.913243,16.757874 12,16.910156 11.674346,16.964459 11.341536,17 11,17 10.658464,17 10.325654,16.964459 10,16.910156 9.0867569,16.757874 8.2459631,16.404143 7.5234375,15.890625 6.9762415,15.501718 6.4982817,15.023758 6.109375,14.476562 5.5958569,13.754037 5.2421264,12.913243 5.0898438,12 5.0355412,11.674346 5,11.341536 5,11 5,10.658464 5.0355412,10.325654 5.0898438,10 5.2421264,9.0867569 5.5958569,8.2459631 6.109375,7.5234375 6.4982817,6.9762415 6.9762415,6.4982817 7.5234375,6.109375 8.2459631,5.5958569 9.0867569,5.2421264 10,5.0898438 10.325654,5.0355412 10.658464,5 11,5 Z m -2,3 0,6 5,-3 z"
         style="opacity:1;fill:#fcfcfc;fill-opacity:1;stroke:none;stroke-width:2.79999995;stroke-miterlimit:4;stroke-dasharray:none;stroke-opacity:0.55026455" />
    </g>
  </g>
</svg>
